1,2,45097.183410692036,0.02006214969379049,0.03834207590773474
1,3,44428.24130994309,0.028495898197787074,0.05368513865945357
1,4,43692.2825225137,0.03431817815791326,0.06427859577875861
1,5,43303.70078890525,0.03727456094397025,0.07015760933984705
1,6,42553.84206471453,0.04138854766774841,0.07800618767193424
1,7,42103.93773462833,0.046107008453118804,0.08697540218288327
1,8,41745.27181011217,0.049984499656476625,0.0943462594591029
1,9,41406.97599872163,0.05300685043102846,0.10010439521507236
1,10,41185.16784154199,0.053823444766369286,0.1013733469071459
1,11,40945.31560431455,0.054119411514744885,0.10202010523144982
1,12,40693.99573346541,0.05910213176963413,0.1108631014091165
1,13,40572.36766927237,0.047250153216343425,0.08848703119630444
1,14,40544.0319751194,0.0405707293462398,0.07532324542172564
1,15,40271.27545843907,0.04606159011226435,0.08664331983900794
1,16,40081.74039732493,0.04814741131338648,0.08984532391486548
1,17,39986.49977079856,0.048432107675427445,0.09063244174737137
1,18,39770.82218183045,0.049347337591715106,0.09258725214081127
1,19,39611.47609197363,0.048418773131784,0.09067948281975512
1,20,39552.228493934505,0.04752816150384998,0.08953064154003204
1,21,39347.99188295356,0.04769552453685714,0.08914202252909985
1,22,39266.32265503994,0.0419541778089981,0.07833838289349702
1,23,39172.87803624069,0.0497896003191526,0.09284655043926189
1,24,39153.50582708942,0.045217203720458,0.08443565654733597
1,25,38961.032614925956,0.04915651432758153,0.09184987317897164
1,26,38920.10842037885,0.050924289431091556,0.09511074383234439
1,27,38730.541410956605,0.05194011115371916,0.09742295029336517
1,28,38794.76872252954,0.0488020267358111,0.0912525916787568
1,29,38582.801384408755,0.05138758285166764,0.09629966047999859
1,30,38499.851525418664,0.0510772015267738,0.09638363487601637
1,31,38345.67359911336,0.05223008795393661,0.09795973460133633
1,32,38222.94301283984,0.050999409498846994,0.09550033960158583
1,33,38322.14007786945,0.052734360054089255,0.0988626874650651
1,34,38161.26107367661,0.053106826018236145,0.09894135074926341
1,35,38075.53202327438,0.05439906994272024,0.102096365407202
1,36,37973.31052948246,0.05321927054247379,0.099497251343873
1,37,37979.26726320953,0.054064980142264754,0.10092781317405518
1,38,37914.361725379094,0.05559239340145935,0.10411867045766467
1,39,37787.98793236036,0.05426061612530046,0.1014034442770396
1,40,37778.465490285314,0.052995964867726494,0.09932517352865633
1,41,37782.23282499127,0.050628268493299884,0.0943551744796177
1,42,37619.02009253941,0.05303316446410763,0.09919504670826418
1,43,37567.91120530573,0.05564377481022675,0.10428092557931942
1,44,37460.29176758308,0.05695014753530556,0.10640896044813411
1,45,37560.129180684926,0.04750649988361278,0.08839748179816906
1,46,37389.60620869387,0.04985608339712278,0.09313034424197211
1,47,37396.76330868016,0.05290427144810674,0.09899388353680512
1,48,37394.11258675258,0.0492263060677007,0.09202129209144112
1,49,37304.90739258398,0.04793408709932407,0.08960594401106581
1,50,37168.66331170117,0.04727269555155271,0.08858862605185835
1,51,37073.37563157262,0.05615813876168973,0.1046325702489322
1,52,37041.767008304654,0.054748591932183996,0.10238277763849844
1,53,37074.852230957025,0.05246780696454313,0.09815297815246901
1,54,37009.984327650025,0.055946755946897804,0.10419084630878976
1,55,36943.1559045835,0.057449607865689326,0.10750256073949643
1,56,36820.49960900955,0.057130001650218205,0.1066061492587261
1,57,36926.69312587005,0.05307333927418974,0.09885243074981523
1,58,36864.95580954621,0.049963927722111855,0.09287896184993294
1,59,36811.10821550738,0.047851286561141286,0.08962206456808129
1,60,36830.48006242145,0.04928171784284479,0.09095987238072845
1,61,36785.57649365648,0.050972949942707686,0.09504952594714086
1,62,36793.93721872541,0.0503730893653743,0.09381114427999955
1,63,36665.751520451864,0.05297153207724601,0.09826271716537552
1,64,36623.783654468534,0.05322583806392004,0.09907763350840715
1,65,36635.48384670944,0.04635548626948153,0.08586416513082872
1,66,36572.65207714373,0.050303066711752435,0.09301347697729717
1,67,36441.43416739999,0.050438870201099106,0.09310823096892208
1,68,36485.40399626675,0.04721407456007816,0.08707616341167557
1,69,36397.80224230526,0.04550038811172431,0.08384958601711844
1,70,36491.995535606584,0.047767238791219246,0.0887258926649165
1,71,36369.069541785786,0.047179419014899984,0.08712324739807847
1,72,36440.622797012256,0.04509132856438975,0.083295870824216
1,73,36292.481803118484,0.04924789722920834,0.09128472787084752
1,74,36274.27518735105,0.05189299956806535,0.09635521207720898
1,75,36306.01781125151,0.04624901185049323,0.08496790371621847
1,76,36208.07355920439,0.04774479934254697,0.0880104003872505
1,77,36360.36600156633,0.05005406554161884,0.092979020091265
1,78,36272.32556433896,0.04229253544923683,0.0775709253047309
1,79,36257.213487208486,0.04591990576822877,0.08469843362125515
1,80,36251.62781165131,0.04585011875964157,0.08477304838871945
1,81,36041.37035049586,0.046099411016517954,0.0846968151861087
1,82,36099.25819986567,0.04854493551542438,0.08963194397965336
1,83,36085.19986786258,0.0473507415323765,0.0871053289933824
1,84,36009.18962890077,0.04458508662458014,0.08201636382590118
1,85,35997.55801587999,0.04772047121840083,0.08820412405590368
1,86,36065.28860792584,0.04745782306453084,0.0875904969154737
1,87,35948.70816017235,0.04626896392588375,0.08528826612413523
1,88,35907.05864782277,0.04683819130770335,0.08608637128600519
1,89,35911.61216978171,0.046704469275841425,0.08573793489976621
1,90,35906.88019758062,0.04629248366882436,0.08510354744984833
1,91,35881.84887869063,0.04538477345747365,0.08310604658140217
1,92,35801.902194158196,0.04794136721892621,0.0883536809453046
1,93,35821.35575047971,0.050563800334509995,0.0935384677301356
1,94,35768.39606025573,0.04563945598897589,0.08337915023164005
1,95,35780.37951124547,0.045101422158308965,0.08252175855838875
1,96,35856.44204116086,0.04123173863437871,0.07538301992385192
1,97,35731.780778298955,0.04549611467757144,0.08301532571130847
1,98,35751.630156456136,0.04204066290248177,0.07704846496003302
1,99,35771.06235807618,0.044353933503236416,0.081255586417345
1,100,35707.314217429936,0.044976388324108225,0.0824278295557065
1,101,35629.61747462304,0.04670305449880299,0.08600123882058563
1,102,35673.08810591869,0.04779893262373356,0.0877054359379814
1,103,35597.39220818311,0.04577505559638075,0.08374530171808318
1,104,35646.347933856654,0.04720060374888492,0.08672989823375965
1,105,35515.209868473954,0.04364433455845138,0.0801852232490195
1,106,35575.21661049681,0.041572279721286354,0.07575446798294984
1,107,35547.66430961675,0.04322838207419926,0.07869104776308943
1,108,35513.95035460184,0.04546675148880635,0.08367828915191663
1,109,35529.00198971031,0.04312824250602589,0.07851391982710491
1,110,35468.517778441994,0.044790996563915525,0.08159884836266622
1,111,35491.92599932728,0.044604992503158754,0.08197495665389734
1,112,35436.671050872654,0.042663609643974726,0.07785333335256588
1,113,35477.07695111798,0.04070386510941279,0.07512090968125955
1,114,35403.11726829773,0.046089887349096796,0.08428270160584332
1,115,35395.30515318635,0.04549778559634003,0.0831974710847256
1,116,35311.11558340624,0.04471295678836975,0.08158384234660265
1,117,35289.24214740648,0.042439199623775604,0.0771809648541824
1,118,35315.933863237464,0.04651672645065371,0.08482547564172728
1,119,35302.52198582519,0.04854973459918645,0.08936481528286898
1,120,35269.423088401556,0.03939893626156254,0.07133778136755918
1,121,35259.42770947786,0.04430855119265335,0.08057870061096263
1,122,35310.48720565841,0.0451708811515536,0.08240491576866316
1,123,35254.731502589566,0.041719359883510686,0.07630592993145964
1,124,35205.08420254222,0.04138182542110552,0.07525205034248882
1,125,35109.07118519066,0.045647103345421304,0.08254099592415119
1,126,35187.5351607084,0.04283533805522574,0.07753356715439672
1,127,35190.100784059585,0.04510693652015109,0.08222075787622384
1,128,35099.70327617956,0.04160728440904981,0.07573025106948551
1,129,35061.55799851704,0.0447976577962811,0.0812826194375088
1,130,35132.050819637545,0.04425751306064243,0.08108265235180417
1,131,35140.73332963993,0.04230297065612457,0.07650834160660044
1,132,35002.278421594165,0.04536408136626968,0.08245634967491212
1,133,34998.1150977156,0.04575953998746075,0.08307152730766515
1,134,35064.02216368229,0.04680337236595618,0.08525082531616791
1,135,34952.059930208445,0.047410369840432065,0.08623559089607695
1,136,35003.585893419455,0.044646009155271005,0.0810661204118572
1,137,34922.224130798655,0.044746251022759365,0.08101931398395419
1,138,34965.96447019433,0.045918358597796395,0.08350511244201289
1,139,34880.0249190123,0.046909632322222644,0.08526176030203322
1,140,34959.484556488795,0.04367150322148182,0.07926340533956543
1,141,34814.953954291406,0.04866719275151458,0.08850142039645366
1,142,34929.94339732695,0.0454837375132111,0.08254357482870686
1,143,34883.632401903036,0.0440984897271493,0.08006066500081052
1,144,34779.58623219752,0.04825801447717891,0.0877476800693379
1,145,34800.40816461619,0.04634041817877931,0.08468278116263392
1,146,34773.157601247214,0.04334630030150739,0.0785999420750401
1,147,34775.68674521367,0.04652273401914221,0.08473014911928077
1,148,34799.11678948113,0.041920078327482894,0.07562918736682005
1,149,34646.64055437813,0.047507543003735525,0.08629240155548229
1,150,34781.96887998328,0.04307416449877195,0.07824144539565298
1,151,34696.94853135897,0.04167967935629255,0.07502353283272474
1,152,34709.31258546592,0.04356912850563405,0.07917546347373634
2,2,45097.183410692036,0.02006214969379049,0.03834207590773474
2,3,44428.24130994309,0.028495898197787074,0.05368513865945357
2,4,43704.985594041034,0.03491907426321978,0.06553823473662905
2,5,43222.6256956133,0.03571307291444841,0.06682587987116997
2,6,42553.841813206505,0.04138895043625488,0.07800678430228583
2,7,42106.29014729241,0.046125962698727575,0.0871127553729137
2,8,41762.66911221388,0.0491718266548558,0.09271858448942362
2,9,41493.53377259192,0.05044829827218787,0.09494551448278088
2,10,41191.979930749396,0.05175113761290215,0.09783076933119705
2,11,40957.86603008527,0.054174495668411336,0.10217920764705928
2,12,40867.18096605919,0.043824916492851265,0.08210824425199792
2,13,40554.96508475101,0.0477190181239069,0.08921673741791403
2,14,40424.8012430547,0.0553742763085542,0.1045539352010766
2,15,40331.99104371094,0.05914064582702231,0.1115142235936038
2,16,40240.497115657425,0.04882069253496207,0.091359534639909
2,17,39916.274672427135,0.04716154357046783,0.08858036865624883
2,18,39819.77980367606,0.0526018284959265,0.09833598744049486
2,19,39658.685815638695,0.04819494556854348,0.090075959827437
2,20,39619.59352710893,0.04650888099790562,0.08688199519736413
2,21,39383.55779552416,0.048881932400520973,0.09127644859031757
2,22,39205.02757504599,0.051733242280588405,0.09715798496544971
2,23,39117.55873637142,0.04991493476972779,0.09322292612141499
2,24,39150.2495682692,0.045503356382893836,0.0848074755909744
2,25,39103.51613819822,0.04740399271264049,0.0884293303058499
2,26,38923.292396827,0.05093342341754164,0.09542214530105851
2,27,38796.193100786164,0.05194695536503176,0.09725031388392903
2,28,38669.19853557636,0.04984480246584618,0.09355129405316699
2,29,38603.25318969662,0.04556512491720382,0.08512270583836372
2,30,38516.50490592228,0.04695502317914677,0.0878104594465836
2,31,38395.15036925114,0.05008092448640796,0.0937537677641032
2,32,38450.074371292045,0.04693456815715569,0.08703521785003787
2,33,38350.50163887969,0.04899435118991352,0.09164460550455729
2,34,38133.62309752507,0.051940789599110325,0.09720658295279455
2,35,37942.935524920584,0.05169809973048732,0.0966002382450367
2,36,38040.399706510405,0.05250760751240949,0.09862160907151364
2,37,37940.6997293142,0.05119647346637447,0.09586721824628605
2,38,37899.95821705573,0.05322316097978591,0.09977673389030231
2,39,37813.4619042447,0.052162575125532115,0.09800166356767114
2,40,37694.39344480027,0.05404439981848179,0.10099552194825727
2,41,37762.01599196207,0.040720384108746586,0.07578752891344803
2,42,37606.02590964154,0.05315883995716881,0.0992270370088233
2,43,37486.02102240811,0.05547839166283766,0.1035995730129667
2,44,37504.090330453444,0.050160774450221844,0.09390885830881009
2,45,37364.41409050461,0.05629054697509126,0.10538945584127507
2,46,37436.35802375938,0.05290429022843192,0.09912577662006782
2,47,37380.79507213999,0.0560760278327511,0.10534222200312793
2,48,37357.89070801607,0.05537798050092774,0.10396808659854041
2,49,37339.16423938558,0.0466337717599257,0.08711526749204451
2,50,37114.95033917232,0.052378650434541145,0.09788747483467097
2,51,37230.336432265096,0.052911235662618857,0.0985969067721055
2,52,36990.54749420973,0.05878506298697678,0.1102412586080718
2,53,37087.397951314146,0.05571305971304247,0.10381340781164904
2,54,37077.258854606735,0.05169876093979263,0.09645393024976581
2,55,36949.63935241147,0.05476626852415775,0.10226015752127283
2,56,36902.403691195286,0.05118168374391078,0.09588156722320358
2,57,36925.346514420344,0.05062567587307323,0.09487228829878953
2,58,36816.39413632261,0.04617533944870175,0.08588264919577088
2,59,36824.23316681581,0.05371938933238182,0.10044770416536744
2,60,36811.79135864465,0.04772846927961832,0.08864434196372836
2,61,36762.5667513055,0.051896451766611534,0.09635348663498783
2,62,36704.24989439432,0.049748991860424016,0.09272496235432037
2,63,36715.74263770977,0.0470648804135763,0.08755428730058645
2,64,36644.45971775066,0.04670978078211773,0.08643089755619918
2,65,36554.86911354293,0.0513365609171933,0.09570679728183477
2,66,36539.24224092767,0.04517093752261136,0.08353777512915955
2,67,36531.15293606524,0.042178252969789644,0.07795999679708462
2,68,36509.85974118601,0.05676910594030949,0.10608907718740725
2,69,36513.99715834043,0.05339639623459327,0.09897738525043479
2,70,36459.20466618708,0.04121950864630306,0.07621156166942414
2,71,36395.099000551505,0.04871376367398563,0.09034769478914954
2,72,36333.73965046908,0.04732599179647878,0.08748612131972187
2,73,36282.183413360166,0.051744034254351735,0.09621261685361034
2,74,36348.860968185625,0.04735911696784998,0.08750502599301789
2,75,36298.44235996159,0.043198918135087944,0.07960597378381057
2,76,36210.99468175161,0.047106921033532735,0.08663269691201199
2,77,36231.148027396346,0.04668566529459461,0.08608590815222013
2,78,36100.62588959496,0.04504284623602492,0.08301472323088949
2,79,36124.48058580887,0.04702046052228627,0.08659363065776864
2,80,36172.61199126493,0.054200002786301715,0.10015643310743876
2,81,36109.15912503131,0.047239018845418444,0.08716765191836542
2,82,36124.84539208139,0.04596736304358718,0.08546696856203723
2,83,36097.77068549327,0.048813965237466575,0.09062421523668066
2,84,36106.58341500726,0.04635144558996311,0.0853210629098791
2,85,36080.74921928097,0.041815699886835936,0.07649608312727063
2,86,36022.11264821708,0.046633114885909134,0.0861255792872224
2,87,36032.32433258861,0.03897715021577458,0.07163390461310337
2,88,35859.301383547565,0.04465875665931748,0.08178871022339275
2,89,35963.464661133185,0.04652344087089845,0.08563411583192271
2,90,35854.005977512425,0.04522731580260655,0.08303385784167612
2,91,35818.535307633625,0.04475955812524414,0.08215734630236315
2,92,35883.913394708805,0.04499832695467533,0.08249631634039298
2,93,35872.747509190754,0.04411928556184521,0.08133751895714204
2,94,35850.92561385638,0.04728521149338785,0.08724574588739341
2,95,35721.26968502801,0.04837388907141233,0.08840882454368712
2,96,35812.29937728098,0.04167902525179656,0.07651210094811396
2,97,35753.80390040095,0.042244960287592614,0.07744496823685412
2,98,35721.778182672984,0.04566175473518696,0.0836227421209484
2,99,35654.68314016313,0.04482820036228475,0.08187393361927385
2,100,35735.01885198411,0.04415679647217369,0.0807081266304912
2,101,35715.246731062856,0.04379597708592305,0.0805416292040726
2,102,35636.02500101629,0.04697368695393594,0.086130582390015
2,103,35659.1928995459,0.044769941401849096,0.0821732983838664
2,104,35544.74875277461,0.041944042758323266,0.07678799361022837
2,105,35614.86844800232,0.045888308383817786,0.08414661052081537
2,106,35485.81020892923,0.04760235048176314,0.08689816468795333
2,107,35508.95832605352,0.044716274653245645,0.08117896280768257
2,108,35515.510493178626,0.04244634019504709,0.07747920782038237
2,109,35548.20699199056,0.04423420906445601,0.08115016691363355
2,110,35360.83850288249,0.04870779758011419,0.08923880263547519
2,111,35424.70054577869,0.045755990702147184,0.08359591109422418
2,112,35448.98977679473,0.04819026580585939,0.08846170670714526
2,113,35371.870184286796,0.04561839459205997,0.08307134822382493
2,114,35333.658626948054,0.04527016826837047,0.08262570057479683
2,115,35393.74444923034,0.04773418653576345,0.08773783343585352
2,116,35353.516038191236,0.046685715348226825,0.08537255507511952
2,117,35337.54014715667,0.045915223746264285,0.08404103603538318
2,118,35300.92218318243,0.053442711189161024,0.09778190827087503
2,119,35334.73183411428,0.042225193454594884,0.07685975131902827
2,120,35320.24626431271,0.03953911681579922,0.07184699480057047
2,121,35215.13228359148,0.047175201425399264,0.08603567357777261
2,122,35263.12200112522,0.044657856977971006,0.08146194504945509
2,123,35176.517066916116,0.046522906153573844,0.08506565996161654
2,124,35178.59217137929,0.04531916919246458,0.08252954913393734
2,125,35190.699803347736,0.04256155513833502,0.07785134725298468
2,126,35142.59370752024,0.044926460940227696,0.08197136261286789
2,127,35106.73820681209,0.0446602783981894,0.0811574991067608
2,128,35140.974102457774,0.043149226177576244,0.07843628440642877
2,129,35098.508888698125,0.041971755937494463,0.07603778239821868
2,130,35106.222930688324,0.044945094977252596,0.08186000981853568
2,131,35080.07624807644,0.042030791036687436,0.07611772152000075
2,132,35077.2041409533,0.04152003955116694,0.07542769434147605
2,133,35077.21337523289,0.04409242373113075,0.0802990156230165
2,134,35000.03299834425,0.041641745387559555,0.07521425800691862
2,135,35063.306679011075,0.044220516512574026,0.08061931672004284
2,136,35014.03791887339,0.042903735993482774,0.07756957502578941
2,137,35004.673790683344,0.03972931292856549,0.07165379274094903
2,138,34911.63895905663,0.042940349241684016,0.07776211224994896
2,139,34944.51997164709,0.04781092980523939,0.08760651769763109
2,140,34947.30938656052,0.044787955340993835,0.08145380388916494
2,141,34829.83081976479,0.04496048479994694,0.08148156930627616
2,142,34912.39088137401,0.04565213766597368,0.08310208729891168
2,143,34870.71397833667,0.04390764576710545,0.07973180281770788
2,144,34816.62381552125,0.045163906342044764,0.0819252299968384
2,145,34929.9296947141,0.04550505214962068,0.08254231144082098
2,146,34841.03504718229,0.040688806560822355,0.07351201483264956
2,147,34827.464135805116,0.04462120637994789,0.08082466140649092
2,148,34759.9450020203,0.04256576134982531,0.07704596474234356
2,149,34774.55756687321,0.039685124373572626,0.07130537573876657
2,150,34793.71482523891,0.049790729008509886,0.09053796505039205
2,151,34706.427239707235,0.0442445625931327,0.08019559910362374
2,152,34738.85092065352,0.047214468673446926,0.08562879604119716
3,2,45238.5408549176,0.02173605729817996,0.041737073534392
3,3,44428.24130994309,0.028495898197787074,0.05368513865945357
3,4,43704.985594041034,0.03491907426321978,0.06553823473662905
3,5,43061.5488239768,0.038016285457323384,0.0713580613450057
3,6,42536.85856896273,0.043207831094700444,0.08130082866017421
3,7,42187.42413012701,0.04530895038227823,0.08545745945353339
3,8,41729.2679759557,0.05011004231977149,0.09464065427530098
3,9,41558.69492732184,0.050390488595943646,0.09492774448256597
3,10,41326.26819475926,0.04760610352426594,0.09012153188373252
3,11,41309.37819647292,0.039523808075514526,0.07374313320025622
3,12,40876.81429359587,0.0428383976445226,0.08006534369837803
3,13,40704.67739311847,0.05399290439320519,0.10137737464000644
3,14,40447.4675116415,0.05679076330988277,0.10685746347964116
3,15,40241.677103335394,0.051583106422961794,0.0971911240143312
3,16,40224.010974640696,0.05268401234390753,0.09898634999301945
3,17,40032.74222673349,0.04370183829346245,0.08193831790293676
3,18,39822.13405333844,0.041902965072273445,0.07819867430302838
3,19,39649.3171817154,0.051049046314353475,0.09533353076004702
3,20,39561.35630537421,0.04994515525911435,0.09334227869081245
3,21,39269.931573054884,0.05989041631385573,0.11279777887838219
3,22,39250.08758515642,0.04673422356402843,0.08703958022488119
3,23,39267.11081883124,0.04480987781626876,0.08398046843872926
3,24,39080.52921852161,0.047224810985359834,0.08844971838054025
3,25,39017.89575747936,0.04987230191397067,0.09307819655172794
3,26,38948.21750116287,0.04812648486615261,0.08999804282795797
3,27,38712.98291605252,0.0483748545163472,0.09060440155481986
3,28,38768.41016523182,0.045020382887636295,0.08409559742068286
3,29,38454.553279548185,0.05228865314018889,0.09788125597403873
3,30,38571.781124059184,0.04810081627717964,0.09008474642149229
3,31,38411.82564140975,0.045964641265171934,0.08595213206365555
3,32,38308.141507694636,0.05447942644394838,0.10182540143882177
3,33,38118.963032174004,0.0583623226890663,0.10903479490723876
3,34,38285.50075822552,0.0498344023964701,0.09320007924335034
3,35,38140.23395806652,0.05713421959739798,0.10699981716103756
3,36,38048.8574576759,0.05097805473433148,0.09503494581757048
3,37,37905.18214026173,0.056625973539798355,0.1056422662545215
3,38,37901.20182169341,0.048519666439660644,0.09088310167723904
3,39,37740.106996247,0.05613375393675269,0.10519124927257022
3,40,37579.41476334503,0.05828766778629057,0.10928398951570717
3,41,37656.907585241875,0.04814829475495642,0.08996007447144881
3,42,37612.27606938674,0.05245650488686467,0.09757288061394723
3,43,37551.31198358781,0.053245868848240674,0.09939324379110218
3,44,37485.75384408042,0.0572174134933821,0.10742401833593292
3,45,37414.815652769175,0.047957760556720054,0.08973248556920785
3,46,37365.619084752514,0.04984023496791611,0.09304176200108102
3,47,37492.30278016468,0.04994731435506863,0.09352367970041862
3,48,37286.29196548227,0.0532883244186188,0.09936769810855517
3,49,37203.411354244054,0.04826665259238675,0.09014197282740591
3,50,37246.80736895347,0.05002066000385758,0.09328861920464293
3,51,37239.203776589056,0.05021320876215691,0.09362062503466621
3,52,37117.25851707529,0.04771403398742743,0.08907314935915871
3,53,36992.22078753069,0.05502552328045512,0.10278690723947487
3,54,36968.27313634107,0.05051291237685287,0.09419014181096344
3,55,36996.013528263815,0.05705896135124946,0.10608986648346799
3,56,36914.8313545327,0.04547595869221086,0.08457945776437827
3,57,36931.35707910305,0.04415752097646912,0.08157187690024742
3,58,37070.08721832695,0.045476619445735146,0.08403946994326897
3,59,36843.77648432507,0.05668869408245853,0.10569557020327433
3,60,36754.31261727272,0.048124514686354224,0.08895949163670738
3,61,36779.599110809184,0.04530412904249929,0.08411663996933241
3,62,36693.66306510687,0.05011620192692228,0.09268542306600341
3,63,36698.263459928115,0.047055569624901254,0.08765603049346209
3,64,36687.34878695697,0.050691183274226906,0.094318500601732
3,65,36645.62331179171,0.04763491444769118,0.08882020118439796
3,66,36533.28817338012,0.05481410555666165,0.101632231877227
3,67,36674.735125393185,0.050754972450525064,0.09439000532268439
3,68,36455.2674163772,0.05272682363890764,0.09806718775652437
3,69,36448.00465708447,0.04592322844445977,0.08490072179126933
3,70,36553.77100890285,0.043296221342918925,0.07969756953145388
3,71,36434.16968865822,0.03962639655329518,0.07317675414212632
3,72,36419.639298469796,0.045406853530394926,0.08386103227358506
3,73,36321.015705569676,0.0461673535389224,0.08555609356022244
3,74,36364.81762853325,0.04813730347943582,0.08836289826561901
3,75,36309.88609542523,0.04571022089776455,0.08441437362637585
3,76,36263.74729965006,0.04311988777861503,0.078944364300471
3,77,36243.68005868887,0.048551686692440095,0.08930953517512133
3,78,36207.368852953965,0.04627448302570861,0.08550376663974635
3,79,36070.757860454636,0.04414200550858048,0.08110615051715381
3,80,36196.26756521842,0.04089069850740724,0.07534578013371186
3,81,36130.79458424731,0.04966977314483627,0.0917667137625267
3,82,36084.09836714729,0.045399871424461745,0.08367978292926889
3,83,36106.36376275949,0.04090167781583499,0.07543863921346877
3,84,36187.75462950665,0.04409754764814554,0.0813265859464638
3,85,36097.19677912958,0.03948823606828668,0.07229519918534848
3,86,36013.4130852746,0.045836073031589944,0.0843917350940181
3,87,36058.779988961775,0.045576392812166584,0.08419260808794042
3,88,36018.205482329715,0.044290555729262805,0.08182729762087179
3,89,35888.06535438779,0.046803486634415935,0.08641150836571622
3,90,35891.70407022502,0.042152438699188034,0.07702664641777257
3,91,35904.67110892312,0.04303029590826791,0.07822654773398804
3,92,35814.03501994265,0.05101772435324806,0.09339566029784051
3,93,35818.60581229869,0.04553739488995263,0.08365031099041108
3,94,35725.38151855766,0.04397060991296764,0.0806701660176623
3,95,35774.65637882319,0.04185627247864585,0.07634758461068981
3,96,35775.823244086656,0.04242888437756101,0.07805876059281057
3,97,35787.89755855853,0.05129170892428002,0.09425465900467662
3,98,35677.7081088871,0.04367825752263948,0.0796322196082966
3,99,35735.446476805766,0.044671931508683885,0.08172996648214638
3,100,35742.290255205015,0.043658324559683485,0.07966100958425808
3,101,35702.61030059326,0.04308356648533922,0.07888864897878993
3,102,35686.60724796894,0.046657358897733814,0.0852246816709181
3,103,35627.29016814188,0.048535055097437795,0.08875615534158246
3,104,35614.478028894904,0.04187256245913103,0.0762886055140554
3,105,35696.96489931767,0.0421661076992761,0.07687500148007721
3,106,35578.59334525167,0.04576452341917128,0.0835202596097696
3,107,35588.667269660895,0.046296319872457865,0.08463218534435978
3,108,35509.35160550562,0.050834103533729545,0.0934078914729424
3,109,35497.39738896139,0.046447648851385935,0.08521899113297038
3,110,35457.27041772498,0.04639228235729077,0.08452750916288625
3,111,35445.75585045344,0.047494508171184134,0.08674572911190087
3,112,35385.847103769855,0.04839457795215886,0.08870753734570054
3,113,35355.995972465025,0.04859114902728345,0.08884852861276035
3,114,35408.70037776418,0.04853846268259007,0.08864264673004114
3,115,35371.43694894637,0.039667672190916325,0.071852564526682
3,116,35455.826027197996,0.03913381497218896,0.07087778327871938
3,117,35309.20446967336,0.04287092326048587,0.07791811404795278
3,118,35339.09888369178,0.03920082965783007,0.07118963939487381
3,119,35273.328310072764,0.041768017717334446,0.07603418721668516
3,120,35297.322354897886,0.04656372406617983,0.08508433068188867
3,121,35259.1303536265,0.04355843236338816,0.07906927477209577
3,122,35221.48607196107,0.044048492350904106,0.08022677662210657
3,123,35109.06813459011,0.046377374814395925,0.08460195323489912
3,124,35245.23940306376,0.04387450085965384,0.07944585221085568
3,125,35177.31592522877,0.038944963182392114,0.0700002385962554
3,126,35063.989853725325,0.04349917935003544,0.07917718355955843
3,127,35077.55433706533,0.0474103196165853,0.08632855919794614
3,128,35218.85895699675,0.044047969849715166,0.07990563086789004
3,129,35066.363766146394,0.042727038057999135,0.07769925371776733
3,130,35194.21986311593,0.04779715302432975,0.08693731785188023
3,131,35098.937152544175,0.04631372275080892,0.08438914444600731
3,132,34972.908029807215,0.042788103378918356,0.07756125420480552
3,133,35082.52695238148,0.043750915817075256,0.07943057397996578
3,134,35053.163527559605,0.04806410782532143,0.08785675952565133
3,135,34974.90959861025,0.04618778633179317,0.08406343960666116
3,136,34974.012399822874,0.04476223158479792,0.08121433086333159
3,137,34985.567137478116,0.04383112738817647,0.07952464913622831
3,138,34978.230846108476,0.04342203399798404,0.07868198094050642
3,139,34956.62970865613,0.04537496795345529,0.08217256613411615
3,140,34944.62850499821,0.03862313437118214,0.06936962729958694
3,141,34861.51462353977,0.04791122368738121,0.08729286519850049
3,142,34778.05900874381,0.04772348858365655,0.08672860886293136
3,143,34825.02631638226,0.04305646418491343,0.0773823992148141
3,144,34890.42999185785,0.03978755324891341,0.07234488883567794
3,145,34917.602137140326,0.04027909380281622,0.07264449486240121
3,146,34820.318168923295,0.04275611748337328,0.07692919394499687
3,147,34792.26758588813,0.047911935615310486,0.08750905926461267
3,148,34802.73630788676,0.04416356219973942,0.07978200262686888
3,149,34724.109577664945,0.045624898575832226,0.08254533276229199
3,150,34719.65910720223,0.04692817873361607,0.08491821872345903
3,151,34766.49815957136,0.04199676573359838,0.07607280298476758
3,152,34741.51803955298,0.04884271964460039,0.08866594135121339
4,2,45238.5408549176,0.02173605729817996,0.041737073534392
4,3,44338.88688898765,0.026951535003168162,0.05104182434206272
4,4,43684.3861282194,0.03254606382944348,0.06128238594916832
4,5,42954.946843662336,0.0389026931586191,0.07313892323268088
4,6,42553.84183528566,0.041389246499284715,0.0780074375266966
4,7,42188.520250998474,0.046697696135283094,0.08806159719586308
4,8,41762.668472693156,0.04917148568611916,0.0927178024075276
4,9,41549.64192381683,0.050176605320846446,0.09455553639455846
4,10,41191.979309124734,0.05175168904170623,0.09783188733472775
4,11,40923.26900906058,0.05147880657640867,0.09745280984426803
4,12,40812.75439019159,0.054728268025761966,0.10327119311251355
4,13,40541.76764060843,0.05400166101407237,0.10162072096797024
4,14,40438.22527193796,0.041713793338215024,0.07848556297334543
4,15,40323.903151506536,0.043371800894359595,0.08160663140576195
4,16,40176.141427136055,0.045332962915260296,0.08531160206087707
4,17,40053.75025807892,0.04794651334327449,0.08963605682085653
4,18,39861.57706656637,0.05148277867197072,0.09607162859398925
4,19,39536.59206260692,0.050781331196679734,0.09485027937199944
4,20,39522.36617871791,0.04407524465967784,0.08280607729593209
4,21,39397.641067559394,0.04951427998503427,0.0927933526772948
4,22,39363.30632709031,0.054964397044703295,0.10389925533589875
4,23,39266.28813301488,0.051937369440001366,0.0971109573363991
4,24,39040.693548700205,0.06051087328985979,0.11382203755442812
4,25,38919.41596825404,0.04885447731596537,0.09154222617833108
4,26,38681.396931604584,0.05021892655655929,0.0940788273083115
4,27,38867.4312335393,0.04514210486378713,0.08455248917428765
4,28,38578.25279904093,0.0556369259776312,0.1044001611542688
4,29,38546.577440556786,0.051336578056733466,0.09629324587511859
4,30,38422.0763999666,0.05132072889761831,0.09609077853688149
4,31,38351.99660529432,0.047930138945520555,0.08959961546952035
4,32,38404.7519196127,0.05505196040122877,0.10271948972618221
4,33,38315.45493744443,0.048536126247023005,0.0908414455455937
4,34,38178.579621324236,0.051937365701825826,0.09682197452143643
4,35,38017.09621221109,0.054121340885776685,0.1012450249938829
4,36,38001.77417578358,0.04994128220351849,0.09369437058964064
4,37,38023.86262545305,0.04895687906748327,0.09156325314391393
4,38,37692.5998828879,0.05724771661357877,0.10743066209335429
4,39,37721.221875496456,0.05629013059744353,0.10542261075857894
4,40,37878.0867851596,0.04931256426871767,0.09224329228926087
4,41,37585.70257727748,0.05876258295672291,0.1099572790904428
4,42,37519.40368599422,0.05349980750217214,0.0993579647730118
4,43,37484.53390912929,0.05749280298631969,0.107742546066358
4,44,37397.73421260437,0.055792062878009405,0.104441479031674
4,45,37402.06314326138,0.05225741910313404,0.0967834234110477
4,46,37325.834309977945,0.054775331965944474,0.10222214666582842
4,47,37287.78973220884,0.052781724458825154,0.09842336875466683
4,48,37262.79223082714,0.0535059139075097,0.09990828035258509
4,49,37267.67822134957,0.05118806591355883,0.09541013013932069
4,50,37175.79358567275,0.04854786586117651,0.09065010284430068
4,51,37268.397374354674,0.04671678451437735,0.0868663079629677
4,52,37089.4662729346,0.05292563042203608,0.0986628873695638
4,53,37065.58797055156,0.05495489850879247,0.1030075739986095
4,54,37018.77854131412,0.050474683365668835,0.09413675037568067
4,55,36922.581869684924,0.05197393929362791,0.09682539005768892
4,56,36915.50477448138,0.05580211467148099,0.10366355491394588
4,57,36914.98703040612,0.053866455026711814,0.10080982290888602
4,58,36838.42464440273,0.04772137935617219,0.08877659204237266
4,59,36780.80158195319,0.051209137937625694,0.09530544105004413
4,60,36878.730119582535,0.0458870617051213,0.08480876970948338
4,61,36635.59477872005,0.048676490067067445,0.09002010683401514
4,62,36729.828449827575,0.047976377290986416,0.08922777951653324
4,63,36690.943939139404,0.04835120326268234,0.08952327023747837
4,64,36613.14847931891,0.055065577480028285,0.10238493452448831
4,65,36599.48416142646,0.05624407574451031,0.10487282385639944
4,66,36647.73875354676,0.047740293145718066,0.08936340525843608
4,67,36489.09397703231,0.05328012270509268,0.0990285293520358
4,68,36547.953255349836,0.04510268524683382,0.08346736867349559
4,69,36486.27348572142,0.05299477844619388,0.09920575211986749
4,70,36460.99112637685,0.04706547067907887,0.08690621022494581
4,71,36397.155158879505,0.049398059611974174,0.0914802367330524
4,72,36307.68153670053,0.04501522898706682,0.08301252338011857
4,73,36226.15685212844,0.049401918519155034,0.09116823363200346
4,74,36345.30222441309,0.04516952281027555,0.08337953110950502
4,75,36322.999077817854,0.04684044075016296,0.08643760737479912
4,76,36241.107162189866,0.04682998614892962,0.0865466861868058
4,77,36307.18488144646,0.04875994705546127,0.09039555900541457
4,78,36239.844350797226,0.04505429236606553,0.08315195062417086
4,79,36128.12200937555,0.04312169391752686,0.07926035274430764
4,80,36177.62595954238,0.04437439492906939,0.08162080116027705
4,81,36116.55657053141,0.04864383319157164,0.08982241035762295
4,82,36068.68168608048,0.04777213494190621,0.08812034562469602
4,83,35954.33364168958,0.05165968629978768,0.09536399337216811
4,84,35998.478766488195,0.046029686431687276,0.08442035240809914
4,85,36023.182984148196,0.04567781235616224,0.08369359528765827
4,86,36038.995171461334,0.04560178733060199,0.08374865968923577
4,87,35972.81095335082,0.050131610771095354,0.09284036996942817
4,88,35974.9735407878,0.04855698678543279,0.08934564979852314
4,89,35926.97336182982,0.047215405129564784,0.0867385443906434
4,90,35958.6663374714,0.043226595877657654,0.0796584531626952
4,91,35926.934223037846,0.04179366171157369,0.07587829636066414
4,92,35890.93183973132,0.04717767688247713,0.08717271518302817
4,93,35862.12689277878,0.04814714099673781,0.0887469323390538
4,94,35842.353316539135,0.04109835968766689,0.07506089801837894
4,95,35835.61084989459,0.04223148215716839,0.0774552372873272
4,96,35844.30621561194,0.04288098951772777,0.07876598884925752
4,97,35719.93580746191,0.047260002153837764,0.08722053049838564
4,98,35665.22888253501,0.04342277547725351,0.0796068363285095
4,99,35779.14832868823,0.043757328894153194,0.08044433985490661
4,100,35627.836717563725,0.04734433299082473,0.0868354908290107
4,101,35729.9958786355,0.042809272839415546,0.07820904560526566
4,102,35653.43976291763,0.05068535362426899,0.09287936243493101
4,103,35538.695785471966,0.04831133131830131,0.08835531724976965
4,104,35648.6776452279,0.04436181000382537,0.08114806417117149
4,105,35584.0434567856,0.04185810934834679,0.07672242683304137
4,106,35518.35368586828,0.04877947598902329,0.08987462125911512
4,107,35510.17103635901,0.04270311617373169,0.07803417950175001
4,108,35573.810283670704,0.04926452462226423,0.09015605857921596
4,109,35556.4058654033,0.042802797229011036,0.07837384545637988
4,110,35441.80987820997,0.04446127029191668,0.08129217601245164
4,111,35408.5819061001,0.047652135174865724,0.08643558615709546
4,112,35411.83978877409,0.05028404511672072,0.09272003313604757
4,113,35400.338784913605,0.04672711416862873,0.08532647420870623
4,114,35419.77314317873,0.04681738618036724,0.08573736545814442
4,115,35276.37915740382,0.04615358116109196,0.08434697027279936
4,116,35433.105422813715,0.04531202328410533,0.08281220722846826
4,117,35321.42352383347,0.0475567876368928,0.08712129963889313
4,118,35290.18842264185,0.04464150385201675,0.08143739975665569
4,119,35320.5057302686,0.04579582471323101,0.08371366598902584
4,120,35229.1564342974,0.044441993016751426,0.08085297371305505
4,121,35251.85562070445,0.044339302838130354,0.08082780510060461
4,122,35220.04663981519,0.045136990078577056,0.08250763320940288
4,123,35207.8029052828,0.0446090380682252,0.08074924277174693
4,124,35180.97817773311,0.0454950495929889,0.08360537428947078
4,125,35234.95361785176,0.04377273914600152,0.07975768408370836
4,126,35140.52563997539,0.043159927991779284,0.07812290720190812
4,127,35206.87160475695,0.04583344334208557,0.0833860969335985
4,128,35148.59883710638,0.04727508945983793,0.08648717651736451
4,129,35174.32549244591,0.0403914597989154,0.0737750013600628
4,130,35082.33900930391,0.04472649652426661,0.08182511489957962
4,131,35096.968973565505,0.043366698930721426,0.07833052465430586
4,132,35050.83407782855,0.044685860901706245,0.08151531850324553
4,133,34895.64872308164,0.04532271741924706,0.08221384600980587
4,134,35066.398172289504,0.041170387227006014,0.07474106329480895
4,135,34964.78083597563,0.04388104913670729,0.07947730757846602
4,136,35025.619256297556,0.04471812088549022,0.08103526324843037
4,137,35008.42981413171,0.04201654344263678,0.07582512001908781
4,138,34985.5397797809,0.042024945968703716,0.07607493527385747
4,139,34926.89271314327,0.044856783454002826,0.08174269127389903
4,140,34870.859899003204,0.042230269433015256,0.07671586174614158
4,141,34917.26958224643,0.0367649687126595,0.06621079210010385
4,142,34888.904669585565,0.045738392911219394,0.08308316281297311
4,143,34847.931273145165,0.0442044322134256,0.08040154688597467
4,144,34774.3890196623,0.043860761600770605,0.07922398295731348
4,145,34878.13334258584,0.03968244740890642,0.07142969937231249
4,146,34847.105911906096,0.04452384722714272,0.08065459438552192
4,147,34795.24971401,0.039831684361000645,0.07157920177334899
4,148,34770.783440745596,0.045096870024740755,0.08163149454527302
4,149,34766.117122700816,0.04590850004415259,0.08285794673050001
4,150,34796.09728852455,0.04378083723851605,0.07918904275021643
4,151,34702.015625528096,0.0469396489606573,0.08512613391902439
4,152,34729.15941018189,0.043874734488556624,0.07952910107814379
5,2,45097.183410692036,0.02006214969379049,0.03834207590773474
5,3,44428.241548161895,0.02849339064985029,0.05368017715704944
5,4,43539.17114755147,0.03469763831580818,0.06487599079985557
5,5,42954.937649756015,0.038900178149667466,0.07313495865994447
5,6,42536.85856896273,0.043207831094700444,0.08130082866017421
5,7,42164.845954325596,0.04653995951236598,0.08755583937602829
5,8,41729.26803538707,0.05010980258228136,0.09464013116251042
5,9,41588.15606426421,0.0493670017296135,0.09305429104070631
5,10,41220.51903807606,0.05262322086703837,0.09951789439641487
5,11,40958.98898674138,0.05696234864849734,0.10691227617467718
5,12,40833.80631022558,0.045042669002793,0.08421510948552277
5,13,40590.74187358491,0.05971457802018688,0.1120844826425178
5,14,40495.50684033538,0.041684865034584934,0.0780969267872553
5,15,40270.626515726726,0.047535755654034687,0.08863479989923015
5,16,40159.72432501524,0.04076644527397698,0.07629922698323434
5,17,39937.318513056984,0.04627023135003661,0.08678245264390534
5,18,39813.86582450383,0.0385724760469937,0.07245576280476938
5,19,39637.22373271248,0.05029225259160372,0.09391077130396633
5,20,39441.396504863,0.04854948520004777,0.09124207565320622
5,21,39397.22238514089,0.05001062722609156,0.09344773582155233
5,22,39346.312062562596,0.04646616942897676,0.08690994826783005
5,23,39167.771306718016,0.047281553682728725,0.08847365495612029
5,24,39084.69801596745,0.04950993420281377,0.09234482223941261
5,25,38793.07268886038,0.04987347826376953,0.09338504362918687
5,26,38810.14613629904,0.05042011107129853,0.09443669778825418
5,27,38760.668650728905,0.04898893757708785,0.09188200187522022
5,28,38710.594439001936,0.05166092873027723,0.09699636038716254
5,29,38498.99147700736,0.04656018015771277,0.08664616201114118
5,30,38474.152498380696,0.050525624649543265,0.09484127494974195
5,31,38362.816382049605,0.04981425100642251,0.09370623971568286
5,32,38262.225407397935,0.053721698794088814,0.10043224319984267
5,33,38379.79634653482,0.050225098048794395,0.09389582983314647
5,34,38204.935714379804,0.05081653936342274,0.09547215711906974
5,35,38065.85719415189,0.052651442023062926,0.0987496284392947
5,36,38160.2704195432,0.04609432271821439,0.08538349011946042
5,37,37936.27938808023,0.054820837708933846,0.10236149916505574
5,38,37718.27195060873,0.05867099220630231,0.1097351421172709
5,39,37683.72850839564,0.05207231512116935,0.09760809541764498
5,40,37900.65065340429,0.050788100945651955,0.09451166655083304
5,41,37481.310150854835,0.0587732410647046,0.1101209391659227
5,42,37713.70090128215,0.05330772505771277,0.09948795729846574
5,43,37642.56180148627,0.04855777579898648,0.09004662530156456
5,44,37577.26074462736,0.04281172590822674,0.08025901769306103
5,45,37496.70132982676,0.052643119314351644,0.09858184662723844
5,46,37398.75261750594,0.05362496231940201,0.09988526517020042
5,47,37290.670694979366,0.04876599774609935,0.09117311623710078
5,48,37270.918856912205,0.0520893767393854,0.09727786354925519
5,49,37197.16698244903,0.054964494026331016,0.10253770707074239
5,50,37173.027605073585,0.05570216043539923,0.10414141343307816
5,51,37203.33963077716,0.04940060727878156,0.09236072052070535
5,52,37190.33976536793,0.05194665953628908,0.09695485451424797
5,53,37038.72153911129,0.05740219095648364,0.10707197704297479
5,54,37022.70322963761,0.04747805904371901,0.08907837256952436
5,55,36997.878747505485,0.04963432677416595,0.09184949580444847
5,56,36948.7590311353,0.0533904301105269,0.0997456031303452
5,57,36867.22834220967,0.05416957224715968,0.10107783404441575
5,58,36937.94285951434,0.04799424490453044,0.08955366827870075
5,59,36809.752639628205,0.04988200978047327,0.09267267168448813
5,60,36764.4185636068,0.044267558472941525,0.08214993548882854
5,61,36748.523157292235,0.053229986101077355,0.09929150355743331
5,62,36688.667656814534,0.05114809709117735,0.09466759771306467
5,63,36704.20181406142,0.05002621555417793,0.09340688217160738
5,64,36708.237965977525,0.04912986898315206,0.09071224860928434
5,65,36548.58593627526,0.04842573255614914,0.08916363481313573
5,66,36534.69945649927,0.05171611033301266,0.09580545876132998
5,67,36402.58747224812,0.043501866054661234,0.08022948142547594
5,68,36488.26257514603,0.04325684233181408,0.08011169857183024
5,69,36416.79484259513,0.051658491626593736,0.09568894350604215
5,70,36422.559135860545,0.04820296710430719,0.08927898505932207
5,71,36416.20104096093,0.04759891206180102,0.08811826517576371
5,72,36357.00214410476,0.04952138095727862,0.09153628362816763
5,73,36308.24525822321,0.04668480102307686,0.08640889394751959
5,74,36300.44280588096,0.04811658855042193,0.08869231565543785
5,75,36304.11588920349,0.04408721556857959,0.08194707388813899
5,76,36346.97100659758,0.04394557604208447,0.08123105113211207
5,77,36221.05860410195,0.05121625892595695,0.09482578627152592
5,78,36098.008795904534,0.05227647669710688,0.09705211560723528
5,79,36197.61223414693,0.04906689729379542,0.09019210694664981
5,80,36170.13702159222,0.04726944778398993,0.08747698629123017
5,81,36109.03569260667,0.04718146009473167,0.08710607985004792
5,82,36071.835997945906,0.04478902740495929,0.08243246962817784
5,83,36132.15853951489,0.0438617943220154,0.08099128068230654
5,84,36140.33863173759,0.040265516070792415,0.07392429568756413
5,85,36067.98565156721,0.04568362249511579,0.08498280133699843
5,86,36019.237663826796,0.04679830215129714,0.08561199964880033
5,87,35958.8709595722,0.04915483770596142,0.09075748314529136
5,88,35992.40039302158,0.04847761924564707,0.08955910185716319
5,89,35849.57387530646,0.04548029103072999,0.08354474396683365
5,90,35873.06511751066,0.046203556077145214,0.08519051338654729
5,91,35894.12971318248,0.04298235447899147,0.0789174035239933
5,92,35823.939898379016,0.04976948310756983,0.09190026872788544
5,93,35820.00452102806,0.044408717764297445,0.08155146269898508
5,94,35774.0311449278,0.045060415679889845,0.08259240873145238
5,95,35778.5370405533,0.041110087778195935,0.07523716879406432
5,96,35761.61806147497,0.047723581126929523,0.08791374332655917
5,97,35790.50009029535,0.04674735655746554,0.08572562150510868
5,98,35769.42690140849,0.04316167605583139,0.07928670412023148
5,99,35672.03838803421,0.04591706320731035,0.08421977554912588
5,100,35641.924084347,0.044936165953789194,0.08229192172253659
5,101,35664.700569877605,0.045489002828044994,0.0829414294409863
5,102,35692.664497185666,0.043828549686949006,0.08009325589751322
5,103,35637.39626847505,0.04528022287183449,0.08294167770263973
5,104,35615.44230027518,0.045798882414057794,0.08431972512539126
5,105,35603.55687118717,0.04501544359436655,0.08258147594229703
5,106,35503.68238932842,0.04676445762778005,0.08554448057926974
5,107,35495.34762907194,0.041279201559856094,0.07524375091222162
5,108,35545.440519707234,0.04105303465974556,0.07453427607832812
5,109,35516.57269776722,0.04763393255294848,0.08739409890515486
5,110,35464.52400461821,0.04549028963299348,0.08292080601079539
5,111,35434.71614642631,0.04025516658241711,0.07347074093913201
5,112,35403.10736436764,0.04488044633827168,0.08196470169136279
5,113,35452.63450060179,0.04209928407435866,0.07699818315697034
5,114,35404.81785115449,0.04500617004597104,0.08216852488682577
5,115,35438.34709870816,0.043249082534757115,0.07919306274797723
5,116,35390.9252218712,0.040369755931552266,0.07362423197077125
5,117,35321.56913583003,0.04716294813577222,0.08622892342331111
5,118,35278.292242557756,0.04308479326064179,0.07820075900869644
5,119,35254.20471927907,0.04391097988589113,0.08012831405945821
5,120,35207.935393034015,0.042698584345177724,0.07717555702407408
5,121,35251.63353454955,0.04676826121696662,0.08553013459763861
5,122,35283.75738104235,0.042863576305175365,0.07795488012062733
5,123,35221.80018589325,0.04494289400521835,0.08169472266244572
5,124,35206.41746145297,0.047108132756123675,0.08568605966390574
5,125,35118.767644421125,0.04338775790579943,0.07821846847353048
5,126,35135.245873341686,0.045018497526795834,0.082021220141464
5,127,35108.700746895054,0.043201766256228236,0.0783627313757221
5,128,35165.24193225982,0.040097587245320206,0.07249886161326315
5,129,35229.23539348679,0.0407769184356525,0.07376548099754131
5,130,35053.91095200538,0.041602958454833874,0.0753663337046241
5,131,35027.74642410389,0.04933568846772662,0.08996984523359444
5,132,35037.01090294196,0.04258543327752244,0.07749239098941751
5,133,35047.64365172324,0.04645120441993236,0.08473194666017039
5,134,34989.74503636851,0.04617707702489121,0.08387515557874267
5,135,35021.0517851087,0.04425192587676075,0.08040325089544062
5,136,35065.31519718428,0.04099870310653405,0.07406438432199337
5,137,34993.66781459037,0.0433086127148483,0.07851086335114843
5,138,34967.58394974466,0.045846938572408215,0.08312123407092305
5,139,34913.245878643465,0.04364334619251238,0.0788223326438881
5,140,34899.2653490674,0.042492047002861896,0.07725866139122688
5,141,34842.33866055665,0.04543708085912955,0.0823318730056183
5,142,34867.659143969926,0.04367763865225946,0.07921395646486146
5,143,34874.93085530191,0.04136403442350808,0.07460023317303899
5,144,34823.80726086813,0.043280426867078454,0.07805672321669953
5,145,34840.173548148174,0.04076237156057658,0.07446292932836329
5,146,34775.70890129771,0.045346171490810945,0.08183235534789553
5,147,34874.481612532254,0.04089969565831122,0.07389105077592141
5,148,34795.00686692491,0.04799438601128615,0.08680109195812563
5,149,34720.66513594231,0.0451549976750779,0.08198974656758048
5,150,34681.36243821216,0.04223369862200693,0.07650741567321756
5,151,34726.13084050266,0.04721200245718706,0.08532803719765736
5,152,34718.11188022964,0.0433078218848793,0.07842977346581904
